Developer Notes
…
This vignette is written as a “note to my future self” in case I wind
up needing to write a similar package again in the future. It is also
intended to increase the number of people who understand how to create
packages like this.

?zcta_crosswalk

The core data structure in this package is
?zcta_crosswalk:

data(zcta_crosswalk)

print(zcta_crosswalk, n = 5)
#> # A tibble: 46,960 × 9
#>   zcta  zcta_numeric state_name  state_usps state_fips state_fips_numeric
#>   <chr>        <int> <chr>       <chr>      <chr>                   <int>
#> 1 00601          601 puerto rico PR         72                         72
#> 2 00601          601 puerto rico PR         72                         72
#> 3 00602          602 puerto rico PR         72                         72
#> 4 00602          602 puerto rico PR         72                         72
#> 5 00603          603 puerto rico PR         72                         72
#> # ℹ 46,955 more rows
#> # ℹ 3 more variables: county_name <chr>, county_fips <chr>,
#> #   county_fips_numeric <int>
…
I started by splitting out the first two characters of each County
FIPS Code into a new column called state_fips. This allows
a user to search for ZCTAs in a state if they know the state’s FIPS
code.

However, this does not help us if users want to select a state by
it’s name or Postal Code Abbreviation. To address this limitation I
created a new dataframe called state_names, and used it to
join against the results of ?get_zcta_crosswalk:

data(state_names)

print(state_names, n = 5)
#> # A tibble: 56 × 4
#>   full       usps  fips_numeric fips_character
#>   <chr>      <chr>        <int> <chr>         
#> 1 alaska     AK               2 02            
#> 2 alabama    AL               1 01            
#> 3 arkansas   AR               5 05            
#> 4 arizona    AZ               4 04            
#> 5 california CA               6 06            
#> # ℹ 51 more rows
…
